Milestone4_Frida
…
# Graph
tree_loss_long <- tree_cover_loss_long %>%
  mutate(year = as.integer(year))

tree_loss_summary <- tree_loss_long %>%
  group_by(year) %>%
  summarise(total_loss = sum(loss_ha, na.rm = TRUE))
print(tree_loss_summary)

# A tibble: 23 × 2
    year total_loss
   <int>      <int>
 1  2001    2746365
 2  2002    3507013
 3  2003    3248468
 4  2004    3848779
 5  2005    3486575
 6  2006    2876762
 7  2007    2621781
 8  2008    2444311
 9  2009    1817892
10  2010    2688855
# ℹ 13 more rows
…
